CODGEO,LIBGEO,DEP,REG,EPCI,NATURE_EPCI,ARR,CV,ZE2010,UU2010,TUU2017,TDUU2017,AU2010,TAU2017,CATAEU2010,BV2012
75056,Paris,75,11,200054781,ME,751,75ZZ,1101,00851,8,80,001,10,111,75056
91027,Athis-Mons,91,11,200054781,ME,913,9102,1118,00851,8,80,001,10,111,75056
91326,Juvisy-sur-Orge,91,11,200054781,ME,913,9102,1118,00851,8,80,001,10,111,75056
91432,Morangis,91,11,200054781,ME,913,9117,1116,00851,8,80,001,10,111,75056
91479,Paray-Vieille-Poste,91,11,200054781,ME,913,9102,1118,00851,8,80,001,10,111,75056
91589,Savigny-sur-Orge,91,11,200054781,ME,913,9117,1116,00851,8,80,001,10,111,75056
91687,Viry-Châtillon,91,11,200054781,ME,912,9120,1116,00851,8,80,001,10,111,75056
92002,Antony,92,11,200054781,ME,921,9201,1101,00851,8,80,001,10,111,75056
92004,Asnières-sur-Seine,92,11,200054781,ME,922,9295,1101,00851,8,80,001,10,111,75056
92007,Bagneux,92,11,200054781,ME,921,9203,1101,00851,8,80,001,10,111,75056
92009,Bois-Colombes,92,11,200054781,ME,922,9211,1101,00851,8,80,001,10,111,75056
92012,Boulogne-Billancourt,92,11,200054781,ME,923,9296,1101,00851,8,80,001,10,111,75056
92014,Bourg-la-Reine,92,11,200054781,ME,921,9203,1101,00851,8,80,001,10,111,75056
92019,Châtenay-Malabry,92,11,200054781,ME,921,9206,1101,00851,8,80,001,10,111,75056
92020,Châtillon,92,11,200054781,ME,921,9207,1101,00851,8,80,001,10,111,75056
92022,Chaville,92,11,200054781,ME,923,9217,1116,00851,8,80,001,10,111,75056
92023,Clamart,92,11,200054781,ME,921,9208,1101,00851,8,80,001,10,111,75056
92024,Clichy,92,11,200054781,ME,922,9209,1101,00851,8,80,001,10,111,75056
92025,Colombes,92,11,200054781,ME,922,9297,1101,00851,8,80,001,10,111,75056
92026,Courbevoie,92,11,200054781,ME,922,9298,1101,00851,8,80,001,10,111,75056
92032,Fontenay-aux-Roses,92,11,200054781,ME,921,9207,1101,00851,8,80,001,10,111,75056
92033,Garches,92,11,200054781,ME,922,9223,1101,00851,8,80,001,10,111,75056
92035,La Garenne-Colombes,92,11,200054781,ME,922,9211,1101,00851,8,80,001,10,111,75056
92036,Gennevilliers,92,11,200054781,ME,922,9214,1101,00851,8,80,001,10,111,75056
92040,Issy-les-Moulineaux,92,11,200054781,ME,923,9215,1101,00851,8,80,001,10,111,75056
92044,Levallois-Perret,92,11,200054781,ME,922,9216,1101,00851,8,80,001,10,111,75056
92046,Malakoff,92,11,200054781,ME,921,9218,1101,00851,8,80,001,10,111,75056
92047,Marnes-la-Coquette,92,11,200054781,ME,923,9223,1116,00851,8,80,001,10,111,75056
92048,Meudon,92,11,200054781,ME,923,9217,1101,00851,8,80,001,10,111,75056
92049,Montrouge,92,11,200054781,ME,921,9218,1101,00851,8,80,001,10,111,75056
92050,Nanterre,92,11,200054781,ME,922,9299,1101,00851,8,80,001,10,111,75056
92051,Neuilly-sur-Seine,92,11,200054781,ME,922,9221,1101,00851,8,80,001,10,111,75056
92060,Le Plessis-Robinson,92,11,200054781,ME,921,9206,1101,00851,8,80,001,10,111,75056
92062,Puteaux,92,11,200054781,ME,922,9213,1101,00851,8,80,001,10,111,75056
92063,Rueil-Malmaison,92,11,200054781,ME,922,9222,1101,00851,8,80,001,10,111,75056
92064,Saint-Cloud,92,11,200054781,ME,922,9223,1101,00851,8,80,001,10,111,75056
92071,Sceaux,92,11,200054781,ME,921,9206,1101,00851,8,80,001,10,111,75056
92072,Sèvres,92,11,200054781,ME,923,9205,1101,00851,8,80,001,10,111,75056
92073,Suresnes,92,11,200054781,ME,922,9220,1101,00851,8,80,001,10,111,75056
92075,Vanves,92,11,200054781,ME,923,9208,1101,00851,8,80,001,10,111,75056
92076,Vaucresson,92,11,200054781,ME,922,9223,1116,00851,8,80,001,10,111,75056
92077,Ville-d'Avray,92,11,200054781,ME,923,9223,1116,00851,8,80,001,10,111,75056
92078,Villeneuve-la-Garenne,92,11,200054781,ME,922,9214,1101,00851,8,80,001,10,111,75056
93001,Aubervilliers,93,11,200054781,ME,933,9301,1101,00851,8,80,001,10,111,75056
93005,Aulnay-sous-Bois,93,11,200054781,ME,932,9302,0056,00851,8,80,001,10,111,75056
93006,Bagnolet,93,11,200054781,ME,931,9303,1101,00851,8,80,001,10,111,75056
93007,Le Blanc-Mesnil,93,11,200054781,ME,932,9304,0056,00851,8,80,001,10,111,75056
93008,Bobigny,93,11,200054781,ME,931,9395,1101,00851,8,80,001,10,111,75056
93010,Bondy,93,11,200054781,ME,931,9306,1101,00851,8,80,001,10,111,75056
93013,Le Bourget,93,11,200054781,ME,932,9307,0056,00851,8,80,001,10,111,75056
93014,Clichy-sous-Bois,93,11,200054781,ME,932,9311,0056,00851,8,80,001,10,111,75056
93015,Coubron,93,11,200054781,ME,932,9320,0056,00851,8,80,001,10,111,75056
93027,La Courneuve,93,11,200054781,ME,933,9307,0056,00851,8,80,001,10,111,75056
93029,Drancy,93,11,200054781,ME,932,9396,1101,00851,8,80,001,10,111,75056
93030,Dugny,93,11,200054781,ME,932,9307,0056,00851,8,80,001,10,111,75056
93031,Épinay-sur-Seine,93,11,200054781,ME,933,9397,1101,00851,8,80,001,10,111,75056
93032,Gagny,93,11,200054781,ME,932,9310,1101,00851,8,80,001,10,111,75056
93033,Gournay-sur-Marne,93,11,200054781,ME,932,9314,1101,00851,8,80,001,10,111,75056
93039,L'Île-Saint-Denis,93,11,200054781,ME,933,9318,1101,00851,8,80,001,10,111,75056
93045,Les Lilas,93,11,200054781,ME,931,9303,1101,00851,8,80,001,10,111,75056
93046,Livry-Gargan,93,11,200054781,ME,932,9311,0056,00851,8,80,001,10,111,75056
93047,Montfermeil,93,11,200054781,ME,932,9320,0056,00851,8,80,001,10,111,75056
93048,Montreuil,93,11,200054781,ME,931,9398,1101,00851,8,80,001,10,111,75056
93049,Neuilly-Plaisance,93,11,200054781,ME,932,9321,1101,00851,8,80,001,10,111,75056
93050,Neuilly-sur-Marne,93,11,200054781,ME,932,9310,1101,00851,8,80,001,10,111,75056
93051,Noisy-le-Grand,93,11,200054781,ME,932,9314,1102,00851,8,80,001,10,111,75056
93053,Noisy-le-Sec,93,11,200054781,ME,931,9305,1101,00851,8,80,001,10,111,75056
93055,Pantin,93,11,200054781,ME,931,9315,1101,00851,8,80,001,10,111,75056
93057,Les Pavillons-sous-Bois,93,11,200054781,ME,932,9306,0056,00851,8,80,001,10,111,75056
93059,Pierrefitte-sur-Seine,93,11,200054781,ME,933,9309,0056,00851,8,80,001,10,111,75056
93061,Le Pré-Saint-Gervais,93,11,200054781,ME,931,9315,1101,00851,8,80,001,10,111,75056
93062,Le Raincy,93,11,200054781,ME,932,9321,0056,00851,8,80,001,10,111,75056
93063,Romainville,93,11,200054781,ME,931,9303,1101,00851,8,80,001,10,111,75056
93064,Rosny-sous-Bois,93,11,200054781,ME,932,9312,1101,00851,8,80,001,10,111,75056
93066,Saint-Denis,93,11,200054781,ME,933,9399,1101,00851,8,80,001,10,111,75056
93070,Saint-Ouen-sur-Seine,93,11,200054781,ME,933,9318,1101,00851,8,80,001,10,111,75056
93071,Sevran,93,11,200054781,ME,932,9319,0056,00851,8,80,001,10,111,75056
93072,Stains,93,11,200054781,ME,933,9317,0056,00851,8,80,001,10,111,75056
93073,Tremblay-en-France,93,11,200054781,ME,932,9320,0056,00851,8,80,001,10,111,75056
93074,Vaujours,93,11,200054781,ME,932,9320,0056,00851,8,80,001,10,111,75056
93077,Villemomble,93,11,200054781,ME,932,9321,1101,00851,8,80,001,10,111,75056
93078,Villepinte,93,11,200054781,ME,932,9319,0056,00851,8,80,001,10,111,75056
93079,Villetaneuse,93,11,200054781,ME,933,9309,0056,00851,8,80,001,10,111,75056
94001,Ablon-sur-Seine,94,11,200054781,ME,943,9415,1118,00851,8,80,001,10,111,75056
94002,Alfortville,94,11,200054781,ME,941,9401,1118,00851,8,80,001,10,111,75056
94003,Arcueil,94,11,200054781,ME,943,9402,1101,00851,8,80,001,10,111,75056
94004,Boissy-Saint-Léger,94,11,200054781,ME,941,9416,1117,00851,8,80,001,10,111,75056
94011,Bonneuil-sur-Marne,94,11,200054781,ME,941,9418,1117,00851,8,80,001,10,111,75056
94015,Bry-sur-Marne,94,11,200054781,ME,942,9422,1102,00851,8,80,001,10,111,75056
94016,Cachan,94,11,200054781,ME,943,9402,1101,00851,8,80,001,10,111,75056
94017,Champigny-sur-Marne,94,11,200054781,ME,942,9493,1101,00851,8,80,001,10,111,75056
94018,Charenton-le-Pont,94,11,200054781,ME,942,9405,1101,00851,8,80,001,10,111,75056
94019,Chennevières-sur-Marne,94,11,200054781,ME,941,9404,1117,00851,8,80,001,10,111,75056
94021,Chevilly-Larue,94,11,200054781,ME,943,9419,1118,00851,8,80,001,10,111,75056
94022,Choisy-le-Roi,94,11,200054781,ME,943,9406,1118,00851,8,80,001,10,111,75056
94028,Créteil,94,11,200054781,ME,941,9494,1117,00851,8,80,001,10,111,75056
94033,Fontenay-sous-Bois,94,11,200054781,ME,942,9409,1101,00851,8,80,001,10,111,75056
94034,Fresnes,94,11,200054781,ME,943,9410,1101,00851,8,80,001,10,111,75056
94037,Gentilly,94,11,200054781,ME,943,9412,1101,00851,8,80,001,10,111,75056
94038,L'Haÿ-les-Roses,94,11,200054781,ME,943,9410,1101,00851,8,80,001,10,111,75056
94041,Ivry-sur-Seine,94,11,200054781,ME,943,9411,1118,00851,8,80,001,10,111,75056
94042,Joinville-le-Pont,94,11,200054781,ME,942,9405,1101,00851,8,80,001,10,111,75056
94043,Le Kremlin-Bicêtre,94,11,200054781,ME,943,9412,1101,00851,8,80,001,10,111,75056
94044,Limeil-Brévannes,94,11,200054781,ME,941,9421,1117,00851,8,80,001,10,111,75056
94046,Maisons-Alfort,94,11,200054781,ME,942,9413,1101,00851,8,80,001,10,111,75056
94047,Mandres-les-Roses,94,11,200054781,ME,941,9416,1117,00851,8,80,001,10,111,75056
94048,Marolles-en-Brie,94,11,200054781,ME,941,9416,1117,00851,8,80,001,10,111,75056
94052,Nogent-sur-Marne,94,11,200054781,ME,942,9495,1101,00851,8,80,001,10,111,75056
94053,Noiseau,94,11,200054781,ME,941,9416,1117,00851,8,80,001,10,111,75056
94054,Orly,94,11,200054781,ME,943,9415,1118,00851,8,80,001,10,111,75056
94055,Ormesson-sur-Marne,94,11,200054781,ME,941,9418,1117,00851,8,80,001,10,111,75056
94056,Périgny,94,11,200054781,ME,941,9416,1117,00851,8,80,001,10,111,75056
94058,Le Perreux-sur-Marne,94,11,200054781,ME,942,9414,1101,00851,8,80,001,10,111,75056
94059,Le Plessis-Trévise,94,11,200054781,ME,941,9422,1117,00851,8,80,001,10,111,75056
94060,La Queue-en-Brie,94,11,200054781,ME,941,9416,1117,00851,8,80,001,10,111,75056
94065,Rungis,94,11,200054781,ME,943,9419,1118,00851,8,80,001,10,111,75056
94067,Saint-Mandé,94,11,200054781,ME,942,9423,1101,00851,8,80,001,10,111,75056
94068,Saint-Maur-des-Fossés,94,11,200054781,ME,942,9496,1101,00851,8,80,001,10,111,75056
94069,Saint-Maurice,94,11,200054781,ME,942,9405,1101,00851,8,80,001,10,111,75056
94070,Santeny,94,11,200054781,ME,941,9416,1117,00851,8,80,001,10,111,75056
94071,Sucy-en-Brie,94,11,200054781,ME,941,9418,1117,00851,8,80,001,10,111,75056
94073,Thiais,94,11,200054781,ME,943,9419,1118,00851,8,80,001,10,111,75056
94074,Valenton,94,11,200054781,ME,943,9421,1118,00851,8,80,001,10,111,75056
94075,Villecresnes,94,11,200054781,ME,941,9416,1117,00851,8,80,001,10,111,75056
94076,Villejuif,94,11,200054781,ME,943,9420,1101,00851,8,80,001,10,111,75056
94077,Villeneuve-le-Roi,94,11,200054781,ME,943,9415,1118,00851,8,80,001,10,111,75056
94078,Villeneuve-Saint-Georges,94,11,200054781,ME,943,9497,1118,00851,8,80,001,10,111,75056
94079,Villiers-sur-Marne,94,11,200054781,ME,942,9422,1102,00851,8,80,001,10,111,75056
94080,Vincennes,94,11,200054781,ME,942,9498,1101,00851,8,80,001,10,111,75056
94081,Vitry-sur-Seine,94,11,200054781,ME,943,9499,1118,00851,8,80,001,10,111,75056
95018,Argenteuil,95,11,200054781,ME,951,9598,1101,00851,8,80,001,10,111,75056
75101,Paris 1er Arrondissement,75,11,200054781,ME,751,75ZZ,1101,00851,8,80,001,10,111,75056
75102,Paris 2e Arrondissement,75,11,200054781,ME,751,75ZZ,1101,00851,8,80,001,10,111,75056
75103,Paris 3e Arrondissement,75,11,200054781,ME,751,75ZZ,1101,00851,8,80,001,10,111,75056
75104,Paris 4e Arrondissement,75,11,200054781,ME,751,75ZZ,1101,00851,8,80,001,10,111,75056
75105,Paris 5e Arrondissement,75,11,200054781,ME,751,75ZZ,1101,00851,8,80,001,10,111,75056
75106,Paris 6e Arrondissement,75,11,200054781,ME,751,75ZZ,1101,00851,8,80,001,10,111,75056
75107,Paris 7e Arrondissement,75,11,200054781,ME,751,75ZZ,1101,00851,8,80,001,10,111,75056
75108,Paris 8e Arrondissement,75,11,200054781,ME,751,75ZZ,1101,00851,8,80,001,10,111,75056
75109,Paris 9e Arrondissement,75,11,200054781,ME,751,75ZZ,1101,00851,8,80,001,10,111,75056
75110,Paris 10e Arrondissement,75,11,200054781,ME,751,75ZZ,1101,00851,8,80,001,10,111,75056
75111,Paris 11e Arrondissement,75,11,200054781,ME,751,75ZZ,1101,00851,8,80,001,10,111,75056
75112,Paris 12e Arrondissement,75,11,200054781,ME,751,75ZZ,1101,00851,8,80,001,10,111,75056
75113,Paris 13e Arrondissement,75,11,200054781,ME,751,75ZZ,1101,00851,8,80,001,10,111,75056
75114,Paris 14e Arrondissement,75,11,200054781,ME,751,75ZZ,1101,00851,8,80,001,10,111,75056
75115,Paris 15e Arrondissement,75,11,200054781,ME,751,75ZZ,1101,00851,8,80,001,10,111,75056
75116,Paris 16e Arrondissement,75,11,200054781,ME,751,75ZZ,1101,00851,8,80,001,10,111,75056
75117,Paris 17e Arrondissement,75,11,200054781,ME,751,75ZZ,1101,00851,8,80,001,10,111,75056
75118,Paris 18e Arrondissement,75,11,200054781,ME,751,75ZZ,1101,00851,8,80,001,10,111,75056
75119,Paris 19e Arrondissement,75,11,200054781,ME,751,75ZZ,1101,00851,8,80,001,10,111,75056
75120,Paris 20e Arrondissement,75,11,200054781,ME,751,75ZZ,1101,00851,8,80,001,10,111,75056
